[
  {
    "id": "cjlo7awter08pwbe",
    "title": "Nausica of the Valley of the Wind",
    "year": 1984
  },
  {
    "id": "pq9vioqwm47ei88x",
    "title": "Castle in the Sky",
    "year": 1986
  },
  {
    "id": "2av7ugaa0nnu8vzn",
    "title": "Grave of the Fireflies",
    "year": 1988
  },
  {
    "id": "mirk5vbzocj8xqoh",
    "title": "My Neighbor Totoro",
    "year": 1988
  },
  {
    "id": "em0a9tlnr4xw515x",
    "title": "Howl's Moving Castle",
    "year": 2000
  }
]